…
    ## Warning: 15270 parsing failures.
    ##   row     col           expected       actual                 file
    ## 19887 sctCite 1/0/T/F/TRUE/FALSE 67 S. Ct. 6  'data/scdb-case.csv'
    ## 19887 docket  1/0/T/F/TRUE/FALSE 24           'data/scdb-case.csv'
    ## 19888 sctCite 1/0/T/F/TRUE/FALSE 67 S. Ct. 13 'data/scdb-case.csv'
    ## 19888 docket  1/0/T/F/TRUE/FALSE 12           'data/scdb-case.csv'
    ## 19889 sctCite 1/0/T/F/TRUE/FALSE 67 S. Ct. 1  'data/scdb-case.csv'
    ## ..... ....... .................. ............ ....................
    ## See problems(...) for more details.

``` r
scdb_case
```

    ## # A tibble: 28,916 x 52
    ##    caseId docketId caseIssuesId dateDecision decisionType usCite sctCite ledCite
    ##    <chr>  <chr>    <chr>        <chr>               <dbl> <chr>  <lgl>   <chr>  
    ##  1 1791-… 1791-00… 1791-001-01… 8/3/1791                6 2 U.S… NA      1 L. E…
    ##  2 1791-… 1791-00… 1791-002-01… 8/3/1791                2 2 U.S… NA      1 L. E…
    ##  3 1792-… 1792-00… 1792-001-01… 2/14/1792               2 2 U.S… NA      1 L. E…
    ##  4 1792-… 1792-00… 1792-002-01… 8/7/1792                2 2 U.S… NA      1 L. E…
    ##  5 1792-… 1792-00… 1792-003-01… 8/11/1792               8 2 U.S… NA      1 L. E…
    ##  6 1792-… 1792-00… 1792-004-01… 8/11/1792               6 2 U.S… NA      1 L. E…
    ##  7 1793-… 1793-00… 1793-001-01… 2/19/1793               8 2 U.S… NA      1 L. E…
    ##  8 1793-… 1793-00… 1793-002-01… 2/20/1793               2 2 U.S… NA      1 L. E…
    ##  9 1793-… 1793-00… 1793-003-01… 2/20/1793               8 2 U.S… NA      1 L. E…
    ## 10 1794-… 1794-00… 1794-001-01… 2/7/1794               NA 3 U.S… NA      1 L. E…
    ## # … with 28,906 more rows, and 44 more variables: lexisCite <chr>, term <dbl>,
    ## #   naturalCourt <dbl>, chief <chr>, docket <lgl>, caseName <chr>,
    ## #   dateArgument <chr>, dateRearg <chr>, petitioner <dbl>,
    ## #   petitionerState <dbl>, respondent <dbl>, respondentState <dbl>,
    ## #   jurisdiction <dbl>, adminAction <lgl>, adminActionState <lgl>,
    ## #   threeJudgeFdc <dbl>, caseOrigin <dbl>, caseOriginState <dbl>,
    ## #   caseSource <dbl>, caseSourceState <dbl>, lcDisagreement <dbl>,
    ## #   certReason <dbl>, lcDisposition <dbl>, lcDispositionDirection <dbl>,
    ## #   declarationUncon <dbl>, caseDisposition <dbl>,
…
``` r
scdb_vote
```

    ## # A tibble: 253,058 x 13
    ##    caseId docketId caseIssuesId voteId  term justice justiceName  vote opinion
    ##    <chr>  <chr>    <chr>        <chr>  <dbl>   <dbl> <chr>       <dbl>   <dbl>
    ##  1 1791-… 1791-00… 1791-001-01… 1791-…  1791       1 JJay            1       1
    ##  2 1791-… 1791-00… 1791-001-01… 1791-…  1791       3 WCushing        1       1
    ##  3 1791-… 1791-00… 1791-001-01… 1791-…  1791       4 JWilson         1       1
    ##  4 1791-… 1791-00… 1791-001-01… 1791-…  1791       5 JBlair          1       1
    ##  5 1791-… 1791-00… 1791-001-01… 1791-…  1791       6 JIredell        1       1
    ##  6 1791-… 1791-00… 1791-002-01… 1791-…  1791       1 JJay            1       1
    ##  7 1791-… 1791-00… 1791-002-01… 1791-…  1791       3 WCushing        1       1
    ##  8 1791-… 1791-00… 1791-002-01… 1791-…  1791       4 JWilson         1       1
    ##  9 1791-… 1791-00… 1791-002-01… 1791-…  1791       5 JBlair          1       1
    ## 10 1791-… 1791-00… 1791-002-01… 1791-…  1791       6 JIredell        1       1
    ## # … with 253,048 more rows, and 4 more variables: direction <dbl>,
    ## #   majority <dbl>, firstAgreement <dbl>, secondAgreement <dbl>
…
